{
  "info": {
    "title": "1830",
    "subtitle": "Railways & Robber Barons",
    "designer": "Francis Tresham",
    "background": "gray",
    "titleX": 50,
    "currency": "$#"
  },
  "links": {
    "bgg": "https://www.boardgamegeek.com/boardgame/421/1830-railways-robber-barons",
    "rules": "https://boardgamegeek.com/wiki/page/1830_Rules"
  },
  "tokens": [
    "Round"
  ],
  "ipo": true,
  "bank": 12000,
  "players": [
    {
      "number": 3,
      "certLimit": 20,
      "capital": 800
    },
    {
      "number": 4,
      "certLimit": 16,
      "capital": 600
    },
    {
      "number": 5,
      "certLimit": 13,
      "capital": 480
    },
    {
      "number": 6,
      "certLimit": 11,
      "capital": 400
    }
  ],
  "shareTypes": {
    "default": [
      {
        "quantity": 1,
        "label": "President's Certificate",
        "percent": 20,
        "shares": 2
      },
      {
        "quantity": 8,
        "percent": 10,
        "shares": 1
      }
    ]
  },
  "tokenTypes": {
    "two": [
      "Home",
      40
    ],
    "three": [
      "Home",
      40,
      100
    ],
    "four": [
      "Home",
      40,
      100,
      100
    ]
  },
  "floatPercent": 60,
  "companies": [
    {
      "name": "Pennsylvania Railroad",
      "abbrev": "PRR",
      "logo": "PRR",
      "color": "green",
      "tokens": "four"
    },
    {
      "name": "New York Central Railroad",
      "abbrev": "NYC",
      "logo": "NYC",
      "color": "black",
      "tokens": "four"
    },
    {
      "name": "Canadian Pacific Railroad",
      "abbrev": "CPR",
      "logo": "CPR",
      "color": "red",
      "tokens": "four"
    },
    {
      "name": "Baltimore & Ohio Railroad",
      "abbrev": "B&O",
      "logo": "BO",
      "color": "blue",
      "tokens": "three"
    },
    {
      "name": "Chesapeake & Ohio Railroad",
      "abbrev": "C&O",
      "logo": "CO",
      "color": "lightBlue",
      "tokens": "three"
    },
    {
      "name": "Erie Railroad",
      "abbrev": "ERIE",
      "logo": "ERIE",
      "color": "yellow",
      "tokens": "three"
    },
    {
      "name": "New York, New Haven & Hartford Railroad",
      "abbrev": "NYNH",
      "logo": "NYNH",
      "color": "orange",
      "tokens": "two"
    },
    {
      "name": "Boston & Maine Railroad",
      "abbrev": "B&M",
      "logo": "BM",
      "color": "brightGreen",
      "tokens": "two"
    }
  ],
  "trains": [
    {
      "name": "2",
      "quantity": 6,
      "price": 80,
      "color": "yellow",
      "image": "2T",
      "rusts_on": "4",
      "distance": 2,
      "info": [
        {
          "color": "green",
          "note": "Rusted by 4"
        }
      ]
    },
    {
      "name": "3",
      "quantity": 5,
      "price": 180,
      "color": "green",
      "image": "3T",
      "rusts_on": "6",
      "distance": 3,
      "info": [
        {
          "color": "brown",
          "note": "Rusted by 6"
        }
      ]
    },
    {
      "name": "4",
      "quantity": 4,
      "price": 300,
      "color": "green",
      "image": "4T",
      "rusts_on": "D",
      "distance": 4,
      "info": [
        {
          "color": "brown",
          "note": "Rusted by D"
        }
      ]
    },
    {
      "name": "5",
      "quantity": 3,
      "price": 450,
      "color": "brown",
      "image": "5T",
      "distance": 5,
      "info": [
        {
          "color": "yellow",
          "note": "Permanent"
        }
      ]
    },
    {
      "name": "6",
      "quantity": 2,
      "price": 630,
      "color": "brown",
      "image": "6T",
      "distance": 6,
      "info": [
        {
          "color": "yellow",
          "note": "Permanent"
        }
      ]
    },
    {
      "name": "D",
      "quantity": 6,
      "price": 1100,
      "color": "brown",
      "image": "Diesel",
      "available_on": "6",
      "distance": 999,
      "discount": {
        "4": 300,
        "5": 300,
        "6": 300,
        "D": 300
      },
      "description": "Cost $800 when trading in a 4T, 5T or 6T",
      "info": [
        {
          "color": "yellow",
          "note": "Permanent"
        }
      ]
    }
  ],
  "privates": [
    {
      "name": "Schuylkill Valley",
      "price": 20,
      "revenue": 5,
      "hex": "G15",
      "description": ""
    },
    {
      "name": "Champlain & St.Lawrence",
      "price": 40,
      "revenue": 10,
      "hex": "B20",
      "description": "A corporation owning the C&StL may lay a tile on the C&StL's hex even if this hex is not connected to the corporations's railhead. This free tile placement is in addition to the corporation's normal tile placement."
    },
    {
      "name": "Delaware & Hudson",
      "price": 70,
      "revenue": 15,
      "hex": "F16",
      "description": "A corporation owning the Delaware & Hudson may establish a railhead on the D&H hex by laying a station tile and a token. The station does not have to be connected to the remainder of the corporation's route. The tile laid is the owning corporation's one tile placement for the turn."
    },
    {
      "name": "Mohawk & Hudson",
      "price": 110,
      "revenue": 20,
      "company": "NYC",
      "description": "A player owning the M&H may exhange it for a 10% share of the NYC if he does not already hold 60% of the NYC and there is NYC stock available in the Bank or the Pool. The exchange may be made during the player's turn of a stock round or between the turns of other players or corporations in either stock or operating rounds. This action closes the M&H."
    },
    {
      "name": "Camden & Amboy",
      "price": 160,
      "revenue": 25,
      "company": "PRR",
      "description": "The initial purchaser of the C&A immediately receives a 10% share of PRR stock without further payment. This action does not close the C&A. The PRR corporation will not be running at this point, but the stock may be retained or sold subject to the ordinary rules of the game."
    },
    {
      "name": "Baltimore & Ohio",
      "price": 220,
      "revenue": 30,
      "company": "B&O",
      "description": "The owner of the B&O private company immediately receives the President's certificate of the B&O without further payment. The B&O private company may not be sold to any corporation, and does not exchange hands if the owning player loses the Presidency of the B&O. When the B&O purchases its first train the private company is closed down."
    }
  ],
  "phases": [
    {
      "name": "2",
      "limit": "4",
      "number": "6",
      "tiles": "yellow"
    },
    {
      "name": "3",
      "limit": "4",
      "number": "5",
      "tiles": "green",
      "notes": "Private companies may be purchased"
    },
    {
      "name": "4",
      "rust": "2",
      "limit": "3",
      "number": "4",
      "tiles": "green"
    },
    {
      "name": "5",
      "limit": "2",
      "number": "3",
      "tiles": "brown",
      "notes": "Private companies are closed"
    },
    {
      "name": "6",
      "limit": "2",
      "number": "2",
      "rust": "3",
      "tiles": "brown",
      "notes": "D Trains may be purchased"
    },
    {
      "name": "D",
      "limit": "2",
      "number": "6",
      "rust": "4",
      "tiles": "brown"
    }
  ],
  "pools": [
    {
      "name": "Market",
      "notes": [
        {
          "color": "orange",
          "note": "Shares in the market pay dividends to the corporation"
        },
        {
          "color": "brown",
          "icon": "exclamation",
          "note": "No more than 50% of a corporation's shares may be in the market at any time"
        },
        {
          "color": "red",
          "icon": "times",
          "note": "Shares cannot be sold during the first stock round"
        }
      ]
    }
  ],
  "rounds": [
    {
      "name": "OR3",
      "color": "brown"
    },
    {
      "name": "OR2",
      "color": "green"
    },
    {
      "name": "OR1",
      "color": "yellow"
    },
    {
      "name": "SR",
      "color": "white"
    }
  ],
  "turns": [
    {
      "name": "Stock Round",
      "steps": [
        "Sell any number of shares",
        "Buy one share",
        "Sell any number of shares"
      ],
      "ordered": true
    },
    {
      "name": "Operating Round",
      "steps": [
        "Lay or upgrade track",
        "Purchase a station",
        "Run trains",
        "Pay dividends or withhold revenue",
        "Purchase trains"
      ],
      "ordered": true,
      "optional": [
        "Purchase private companies"
      ]
    }
  ],
  "stock": {
    "type": "2D",
    "display": {
      "par": {
        "x": 15,
        "y": 5
      },
      "roundTracker": {
        "type": "col-reverse",
        "x": 13,
        "y": 5
      },
      "legend": {
        "reverse": true,
        "verticalAlign": "bottom",
        "x": 7,
        "y": 11
      }
    },
    "par": {
      "values": [
        100,
        90,
        82,
        76,
        71,
        67
      ]
    },
    "movement": {
      "up": [
        "Sold out"
      ],
      "down": [
        "Every share sold"
      ],
      "left": [
        "Revenue withheld"
      ],
      "right": [
        "Revenue paid out"
      ]
    },
    "market": [
      [
        {
          "value": 60,
          "label": 60,
          "legend": 0,
          "arrow": "down"
        },
        67,
        71,
        76,
        82,
        90,
        {
          "value": 100,
          "label": 100,
          "par": true
        },
        112,
        126,
        142,
        160,
        180,
        200,
        225,
        250,
        275,
        300,
        325,
        350
      ],
      [
        {
          "value": 53,
          "label": 53,
          "legend": 0,
          "arrow": "down"
        },
        {
          "value": 60,
          "label": 60,
          "legend": 0
        },
        66,
        70,
        76,
        82,
        {
          "value": 90,
          "label": 90,
          "par": true
        },
        100,
        112,
        126,
        142,
        160,
        180,
        200,
        220,
        240,
        260,
        280,
        {
          "value": 300,
          "label": 300,
          "arrow": "up"
        }
      ],
      [
        {
          "value": 46,
          "label": 46,
          "legend": 0,
          "arrow": "down"
        },
        {
          "value": 55,
          "label": 55,
          "legend": 0
        },
        {
          "value": 60,
          "label": 60,
          "legend": 0
        },
        65,
        70,
        76,
        {
          "value": 82,
          "label": 82,
          "par": true
        },
        90,
        100,
        111,
        125,
        140,
        155,
        170,
        185,
        {
          "value": 200,
          "label": 200,
          "arrow": "up"
        }
      ],
      [
        {
          "value": 39,
          "label": 39,
          "legend": 1,
          "arrow": "down"
        },
        {
          "value": 48,
          "label": 48,
          "legend": 0
        },
        {
          "value": 54,
          "label": 54,
          "legend": 0
        },
        {
          "value": 60,
          "label": 60,
          "legend": 0
        },
        66,
        71,
        {
          "value": 76,
          "label": 76,
          "par": true
        },
        82,
        90,
        100,
        110,
        120,
        {
          "value": 130,
          "label": 130,
          "arrow": "up"
        }
      ],
      [
        {
          "value": 32,
          "label": 32,
          "legend": 1,
          "arrow": "down"
        },
        {
          "value": 41,
          "label": 41,
          "legend": 1
        },
        {
          "value": 48,
          "label": 48,
          "legend": 0
        },
        {
          "value": 55,
          "label": 55,
          "legend": 0
        },
        62,
        67,
        {
          "value": 71,
          "label": 71,
          "par": true
        },
        76,
        82,
        90,
        {
          "value": 100,
          "label": 100,
          "arrow": "up"
        }
      ],
      [
        {
          "value": 25,
          "label": 25,
          "legend": 2,
          "arrow": "down"
        },
        {
          "value": 34,
          "label": 34,
          "legend": 1
        },
        {
          "value": 42,
          "label": 42,
          "legend": 1
        },
        {
          "value": 50,
          "label": 50,
          "legend": 0
        },
        {
          "value": 58,
          "label": 58,
          "legend": 0
        },
        65,
        {
          "value": 67,
          "label": 67,
          "par": true
        },
        71,
        75,
        {
          "value": 80,
          "label": 80,
          "arrow": "up"
        }
      ],
      [
        {
          "value": 18,
          "label": 18,
          "legend": 2,
          "arrow": "down"
        },
        {
          "value": 27,
          "label": 27,
          "legend": 2
        },
        {
          "value": 36,
          "label": 36,
          "legend": 1
        },
        {
          "value": 45,
          "label": 45,
          "legend": 1
        },
        {
          "value": 54,
          "label": 54,
          "legend": 0
        },
        63,
        67,
        69,
        {
          "value": 70,
          "label": 70,
          "arrow": "up"
        }
      ],
      [
        {
          "value": 10,
          "label": 10,
          "legend": 2
        },
        {
          "value": 12,
          "label": 12,
          "legend": 2
        },
        {
          "value": 30,
          "label": 30,
          "legend": 2
        },
        {
          "value": 40,
          "label": 40,
          "legend": 1
        },
        {
          "value": 50,
          "label": 50,
          "legend": 0
        },
        {
          "value": 60,
          "label": 60,
          "legend": 0
        },
        67,
        {
          "value": 68,
          "label": 68,
          "arrow": "up"
        }
      ],
      [
        null,
        {
          "value": 10,
          "label": 10,
          "legend": 2
        },
        {
          "value": 20,
          "label": 20,
          "legend": 2
        },
        {
          "value": 30,
          "label": 30,
          "legend": 2
        },
        {
          "value": 40,
          "label": 40,
          "legend": 1
        },
        {
          "value": 50,
          "label": 50,
          "legend": 0
        },
        {
          "value": 60,
          "label": 60,
          "legend": 0,
          "arrow": "up"
        }
      ],
      [
        null,
        null,
        {
          "value": 10,
          "label": 10,
          "legend": 2
        },
        {
          "value": 20,
          "label": 20,
          "legend": 2
        },
        {
          "value": 30,
          "label": 30,
          "legend": 2
        },
        {
          "value": 40,
          "label": 40,
          "legend": 1
        },
        {
          "value": 50,
          "label": 50,
          "legend": 0,
          "arrow": "up"
        }
      ],
      [
        null,
        null,
        null,
        {
          "value": 10,
          "label": 10,
          "legend": 2
        },
        {
          "value": 20,
          "label": 20,
          "legend": 2
        },
        {
          "value": 30,
          "label": 30,
          "legend": 2
        },
        {
          "value": 40,
          "label": 40,
          "legend": 1,
          "arrow": "up"
        }
      ]
    ],
    "legend": [
      {
        "color": "yellow",
        "description": "Shares of this corporation do not count toward the certificate limit",
        "icon": "certificate"
      },
      {
        "color": "orange",
        "description": "Players may own more than 60% of this corporation",
        "icon": "percentage"
      },
      {
        "color": "brown",
        "description": "Players may purchase any number of shares of this corporation in one stock action",
        "icon": "money-bill-wave"
      }
    ]
  },
  "tiles": {
    "1": 1,
    "2": 1,
    "3": 2,
    "4": 2,
    "7": 4,
    "8": 8,
    "9": 7,
    "14": 3,
    "15": 2,
    "16": 1,
    "18": 1,
    "19": 1,
    "20": 1,
    "23": 3,
    "24": 3,
    "25": 1,
    "26": 1,
    "27": 1,
    "28": 1,
    "29": 1,
    "39": 1,
    "40": 1,
    "41": 2,
    "42": 2,
    "43": 2,
    "44": 1,
    "45": 2,
    "46": 2,
    "47": 1,
    "53": 2,
    "54": 1,
    "55": 1,
    "56": 1,
    "57": 4,
    "58": 2,
    "59": 2,
    "61": 2,
    "62": 1,
    "63": 3,
    "64": 1,
    "65": 1,
    "66": 1,
    "67": 1,
    "68": 1,
    "69": 1,
    "70": 1
  },
  "map": {
    "players": {
      "x": 1230,
      "y": 1270
    },
    "roundTracker": {
      "type": "row",
      "x": 40,
      "y": 250
    },
    "hexes": [
      {
        "color": "offboard",
        "track": [
          {
            "type": "offboard",
            "side": 4
          }
        ],
        "removeBorders": [
          5
        ],
        "hexes": [
          "I1"
        ]
      },
      {
        "color": "gray",
        "cities": [
          {
            "name": {
              "name": "Lansing"
            }
          }
        ],
        "values": [
          {
            "angle": 90,
            "percent": 0.667,
            "value": 20
          }
        ],
        "track": [
          {
            "side": 4
          },
          {
            "side": 5
          }
        ],
        "hexes": [
          "D2"
        ]
      },
      {
        "color": "offboard",
        "offBoardRevenue": {
          "name": {
            "name": "Chicago"
          },
          "revenues": [
            {
              "color": "yellow",
              "cost": "40"
            },
            {
              "color": "brown",
              "cost": "70"
            }
          ]
        },
        "offBoardTrack": [
          {
            "side": 3
          },
          {
            "side": 4
          },
          {
            "side": 5
          }
        ],
        "hexes": [
          "F2"
        ]
      },
      {
        "color": "offboard",
        "offBoardRevenue": {
          "angle": 150,
          "percent": 1,
          "name": {
            "name": "Gulf"
          },
          "revenues": [
            {
              "color": "yellow",
              "cost": "30"
            },
            {
              "color": "brown",
              "cost": "60"
            }
          ]
        },
        "track": [
          {
            "type": "offboard",
            "side": 3
          },
          {
            "type": "offboard",
            "side": 4
          }
        ],
        "removeBorders": [
          2
        ],
        "hexes": [
          "J2"
        ]
      },
      {
        "color": "plain",
        "cities": [
          {
            "angle": 120,
            "percent": 0.4,
            "name": {
              "name": "Toledo",
              "rotation": 30
            }
          }
        ],
        "water": {
          "angle": 300,
          "percent": 0.5,
          "cost": 80
        },
        "hexes": [
          "F4"
        ]
      },
      {
        "copy": "F4",
        "cities": [
          {
            "name": {
              "name": "Washington"
            }
          }
        ],
        "hexes": [
          "J14"
        ]
      },
      {
        "copy": "F4",
        "cities": [
          {
            "name": {
              "name": "Providence"
            }
          }
        ],
        "hexes": [
          "F22"
        ]
      },
      {
        "color": "yellow",
        "water": {
          "angle": 180,
          "percent": 0.6,
          "cost": 80
        },
        "labels": [
          {
            "label": "OO",
            "percent": 0.667
          }
        ],
        "cities": [
          {
            "angle": 65,
            "percent": 0.6,
            "name": {
              "name": "Detroit"
            }
          },
          {
            "angle": 295,
            "percent": 0.6,
            "name": {
              "name": "Windsor"
            }
          }
        ],
        "hexes": [
          "E5"
        ]
      },
      {
        "copy": "E5",
        "cities": [
          {
            "name": {
              "name": "Hamilton"
            }
          },
          {
            "name": {
              "name": "Toronto"
            }
          }
        ],
        "hexes": [
          "D10"
        ]
      },
      {
        "copy": "A17",
        "values": [
          {
            "angle": 180,
            "percent": 0.333,
            "value": 30
          }
        ],
        "cities": [
          {
            "percent": 0.5,
            "name": {
              "name": "Cleveland"
            },
            "companies": [
              "C&O"
            ]
          }
        ],
        "hexes": [
          "F6"
        ]
      },
      {
        "color": "plain",
        "centerTowns": [
          {
            "name": {
              "name": "London"
            }
          }
        ],
        "hexes": [
          "E7"
        ]
      },
      {
        "color": "offboard",
        "track": [
          {
            "type": "offboard",
            "side": 5
          }
        ],
        "removeBorders": [
          4
        ],
        "hexes": [
          "A9"
        ]
      },
      {
        "color": "gray",
        "track": [
          {
            "type": "sharp",
            "side": 2
          }
        ],
        "hexes": [
          "E9"
        ]
      },
      {
        "color": "offboard",
        "offBoardRevenue": {
          "angle": 90,
          "percent": 1,
          "name": {
            "name": "Canadian West"
          },
          "revenues": [
            {
              "color": "yellow",
              "cost": "30"
            },
            {
              "color": "brown",
              "cost": "50"
            }
          ]
        },
        "track": [
          {
            "type": "offboard",
            "side": 5
          },
          {
            "type": "offboard",
            "side": 6
          }
        ],
        "removeBorders": [
          1
        ],
        "hexes": [
          "A11"
        ]
      },
      {
        "color": "offboard",
        "offBoardRevenue": {
          "reverse": true,
          "name": {
            "name": "Deep South"
          },
          "revenues": [
            {
              "color": "yellow",
              "cost": "30"
            },
            {
              "color": "brown",
              "cost": "40"
            }
          ]
        },
        "offBoardTrack": [
          {
            "side": 2
          },
          {
            "side": 3
          }
        ],
        "hexes": [
          "K13"
        ]
      },
      {
        "color": "yellow",
        "labels": [
          {
            "label": "OO",
            "percent": 0.667
          }
        ],
        "cities": [
          {
            "angle": 75,
            "percent": 0.55,
            "name": {
              "name": "Dunkirk"
            }
          },
          {
            "angle": 285,
            "percent": 0.55,
            "name": {
              "name": "Buffalo"
            },
            "companies": [
              "ERIE"
            ]
          }
        ],
        "hexes": [
          "E11"
        ]
      },
      {
        "color": "gray",
        "values": [
          {
            "value": 10,
            "percent": 0.8,
            "angle": 180
          }
        ],
        "cities": [
          {
            "name": {
              "name": "Altoona"
            },
            "companies": [
              "PRR"
            ]
          }
        ],
        "track": [
          {
            "type": "straight",
            "side": 1
          },
          {
            "type": "bent",
            "side": 1
          }
        ],
        "hexes": [
          "H12"
        ]
      },
      {
        "color": "plain",
        "hexes": [
          "I13"
        ]
      },
      {
        "color": "gray",
        "cities": [
          {
            "name": {
              "name": "Rochester"
            }
          }
        ],
        "values": [
          {
            "value": 20,
            "y": -60
          }
        ],
        "track": [
          {
            "side": 1
          },
          {
            "side": 4
          },
          {
            "side": 6
          }
        ],
        "hexes": [
          "D14"
        ]
      },
      {
        "color": "gray",
        "values": [
          {
            "value": 10,
            "angle": -30,
            "percent": 0.5
          }
        ],
        "towns": [
          {
            "rotation": 60,
            "angle": 150,
            "percent": 0.26,
            "name": {
              "name": "Kingston",
              "reverse": true
            }
          }
        ],
        "track": [
          {
            "type": "gentle",
            "side": 1
          }
        ],
        "hexes": [
          "C15"
        ]
      },
      {
        "color": "plain",
        "mountain": {
          "cost": 120,
          "percent": 0.333
        },
        "companies": [
          {
            "label": "SVR",
            "angle": 180,
            "percent": 0.333
          }
        ],
        "hexes": [
          "G15"
        ]
      },
      {
        "color": "yellow",
        "labels": [
          {
            "label": "B",
            "angle": 150,
            "percent": 0.7
          }
        ],
        "companies": [
          {
            "label": "B&O",
            "angle": 90,
            "percent": 1.35,
            "bottom": true,
            "right": 40,
            "color": "blue"
          }
        ],
        "values": [
          {
            "value": 30,
            "angle": 210,
            "percent": 0.667
          }
        ],
        "cities": [
          {
            "name": {
              "name": "Baltimore",
              "reverse": true,
              "rotation": -30
            },
            "companies": [
              "B&O"
            ]
          }
        ],
        "track": [
          {
            "side": 4
          },
          {
            "side": 6
          }
        ],
        "hexes": [
          "I15"
        ]
      },
      {
        "color": "gray",
        "cities": [
          {
            "name": {
              "name": "Richmond",
              "reverse": true
            }
          }
        ],
        "values": [
          {
            "value": 20,
            "angle": 270,
            "percent": 0.66
          }
        ],
        "track": [
          {
            "side": 2
          }
        ],
        "hexes": [
          "K15"
        ]
      },
      {
        "color": "plain",
        "cities": [
          {
            "name": {
              "name": "Ottowa"
            }
          }
        ],
        "hexes": [
          "B16"
        ]
      },
      {
        "color": "plain",
        "mountain": {
          "cost": 120,
          "percent": 0.5,
          "angle": 180
        },
        "cities": [
          {
            "angle": -45,
            "percent": 0.5,
            "name": {
              "name": "Scranton",
              "rotation": 45
            }
          }
        ],
        "companies": [
          {
            "label": "D&H",
            "angle": 60,
            "percent": 0.57
          }
        ],
        "hexes": [
          "F16"
        ]
      },
      {
        "color": "gray",
        "track": [
          {
            "type": "sharp",
            "side": 5
          }
        ],
        "hexes": [
          "A17"
        ]
      },
      {
        "color": "plain",
        "companies": [
          {
            "label": "M&H"
          }
        ],
        "hexes": [
          "D18"
        ]
      },
      {
        "color": "yellow",
        "companies": [
          {
            "label": "C&A",
            "angle": 180,
            "percent": 0.65
          }
        ],
        "labels": [
          {
            "label": "OO",
            "y": 57
          }
        ],
        "cities": [
          {
            "x": -40,
            "y": 10,
            "name": {
              "name": "Philadelphia"
            }
          },
          {
            "x": 40,
            "y": 10,
            "name": {
              "name": "Trenton"
            }
          }
        ],
        "hexes": [
          "H18"
        ]
      },
      {
        "copy": "F6",
        "values": [
          {
            "value": 40
          }
        ],
        "cities": [
          {
            "name": {
              "name": "Montreal"
            },
            "companies": [
              "CPR"
            ]
          }
        ],
        "hexes": [
          "A19"
        ]
      },
      {
        "color": "plain",
        "cities": [
          {
            "name": {
              "name": "Albany"
            },
            "companies": [
              "NYC"
            ]
          }
        ],
        "hexes": [
          "E19"
        ]
      },
      {
        "color": "yellow",
        "values": [
          {
            "angle": 180,
            "percent": 0.84,
            "value": 40
          },
          {
            "percent": 0.84,
            "value": 40
          }
        ],
        "cities": [
          {
            "angle": 230,
            "percent": 0.6,
            "name": {
              "name": "New York",
              "reverse": true
            },
            "companies": [
              "NYNH"
            ]
          },
          {
            "angle": 50,
            "percent": 0.6,
            "name": {
              "name": "Newark"
            }
          }
        ],
        "labels": [
          {
            "label": "NY",
            "angle": 140,
            "percent": 0.5
          }
        ],
        "water": {
          "angle": 310,
          "percent": 0.7,
          "cost": 80
        },
        "track": [
          {
            "type": "stop",
            "side": 3
          },
          {
            "type": "stop",
            "side": 6
          }
        ],
        "hexes": [
          "G19"
        ]
      },
      {
        "color": "gray",
        "towns": [
          {
            "angle": 120,
            "percent": 0.57735,
            "rotation": 30,
            "name": {
              "name": "Atlantic City",
              "reverse": true
            }
          }
        ],
        "track": [
          {
            "type": "sharp",
            "side": 1
          }
        ],
        "values": [
          {
            "value": 10,
            "angle": 300,
            "percent": 0.2
          }
        ],
        "hexes": [
          "I19"
        ]
      },
      {
        "copy": "I19",
        "towns": [
          {
            "name": {
              "name": "Mansfield"
            }
          }
        ],
        "hexes": [
          "F24"
        ]
      },
      {
        "color": "plain",
        "companies": [
          {
            "label": "C&StL",
            "percent": 0.5
          }
        ],
        "centerTowns": [
          {
            "name": {
              "name": "Burlington"
            }
          }
        ],
        "hexes": [
          "B20"
        ]
      },
      {
        "color": "yellow",
        "labels": [
          {
            "angle": 150,
            "percent": 0.7,
            "label": "B"
          }
        ],
        "cities": [
          {
            "name": {
              "name": "Boston",
              "reverse": true,
              "rotation": -90
            },
            "companies": [
              "B&M"
            ]
          }
        ],
        "values": [
          {
            "value": 30,
            "angle": 90,
            "percent": 0.67
          }
        ],
        "track": [
          {
            "side": 3
          },
          {
            "side": 5
          }
        ],
        "hexes": [
          "E23"
        ]
      },
      {
        "color": "offboard",
        "offBoardRevenue": {
          "name": {
            "name": "Maritime Provinces"
          },
          "revenues": [
            {
              "cost": "20",
              "color": "yellow"
            },
            {
              "cost": "30",
              "color": "brown"
            }
          ]
        },
        "offBoardTrack": [
          {
            "side": 1
          },
          {
            "side": 6
          }
        ],
        "hexes": [
          "B24"
        ]
      },
      {
        "color": "gray",
        "track": [
          {
            "type": "sharp",
            "side": 6
          }
        ],
        "hexes": [
          "D24"
        ]
      },
      {
        "color": "plain",
        "centerTowns": [
          {
            "name": {
              "name": "Flint"
            }
          }
        ],
        "hexes": [
          "D4"
        ]
      },
      {
        "color": "plain",
        "centerTowns": [
          {
            "name": {
              "name": "Erie"
            }
          }
        ],
        "hexes": [
          "F10"
        ]
      },
      {
        "color": "plain",
        "centerTowns": [
          {
            "x": -30,
            "name": {
              "name": "Akron",
              "reverse": true
            }
          },
          {
            "x": 30,
            "name": {
              "name": "Canton"
            }
          }
        ],
        "hexes": [
          "G7"
        ]
      },
      {
        "copy": "G7",
        "centerTowns": [
          {
            "name": {
              "name": "Reading"
            }
          },
          {
            "name": {
              "name": "Allentown"
            }
          }
        ],
        "hexes": [
          "G17"
        ]
      },
      {
        "copy": "G7",
        "centerTowns": [
          {
            "name": {
              "name": "New Haven"
            }
          },
          {
            "name": {
              "name": "Hartford"
            }
          }
        ],
        "hexes": [
          "F20"
        ]
      },
      {
        "color": "plain",
        "cities": [
          {
            "name": {
              "name": "Columbus"
            }
          }
        ],
        "hexes": [
          "H4"
        ]
      },
      {
        "copy": "H4",
        "cities": [
          {
            "name": {
              "name": "Barrie"
            }
          }
        ],
        "hexes": [
          "B10"
        ]
      },
      {
        "copy": "H4",
        "cities": [
          {
            "name": {
              "name": "Pittsburgh"
            }
          }
        ],
        "hexes": [
          "H10"
        ]
      },
      {
        "copy": "H4",
        "cities": [
          {
            "name": {
              "name": "Lancaster"
            }
          }
        ],
        "hexes": [
          "H16"
        ]
      },
      {
        "color": "plain",
        "water": {
          "cost": 80
        },
        "hexes": [
          "D6",
          "I17",
          "B18",
          "C19"
        ]
      },
      {
        "color": "plain",
        "mountain": {
          "cost": 120
        },
        "hexes": [
          "C17",
          "C21",
          "D22",
          "E17",
          "E21",
          "G13",
          "I11",
          "J10",
          "J12"
        ]
      },
      {
        "color": "plain",
        "hexes": [
          "B12",
          "B14",
          "B22",
          "C7",
          "C9",
          "C11",
          "C13",
          "C23",
          "D8",
          "D12",
          "D16",
          "D20",
          "E3",
          "E13",
          "E15",
          "F8",
          "F12",
          "F14",
          "F18",
          "G3",
          "G5",
          "G9",
          "G11",
          "H2",
          "H6",
          "H8",
          "H14",
          "I3",
          "I5",
          "I7",
          "I9",
          "J4",
          "J6",
          "J8"
        ]
      }
    ],
    "borders": [{
      "color": "water",
      "coords": ["F8p3", "F8p4"]
    },{
      "color": "water",
      "coords": ["D12p3", "D12p4", "D12p5"]
    },{
      "color": "water",
      "coords": ["C17p3", "C17p4"]
    }]
  }
}
